{
  "config": {
    "registerType": "MODAL",
    "showJSONPreview": false
  },
  "smartphones": [
    {
      "color": "WHITE",
      "brand": "Apple",
      "model": "Iphone",
      "price": "2000",
      "startDate": "2020-03-11",
      "endDate": "2020-03-27",
      "photo": "https://www.extra-imagens.com.br/TelefoneseCelulares/Smartphones/iPhone/15253146/1114527755/iphone-xr-apple-branco-64gb-tela-retina-lcd-de-61-ios-12-camera-traseira-12mp-resistente-a-agua-e-reconhecimento-facial-15253146.jpg",
      "id": 4
    },
    {
      "photo": "https://www.lojaoriodopeixe.com.br/comprar/produtos/fotos900/4302.jpg",
      "brand": "Motorola",
      "model": "Moto G",
      "price": "1000",
      "color": "BLACK",
      "startDate": "2020-03-01",
      "endDate": "2020-03-31",
      "id": 5
    },
    {
      "brand": "Samsung ",
      "model": "Galaxy S10",
      "price": "1200",
      "color": "BLACK",
      "startDate": "2020-03-01",
      "endDate": "2020-03-31",
      "photo": "https://www.pontofrio-imagens.com.br/TelefoneseCelulares/Smartphones/Android/14817287/1087842938/smartphone-samsung-galaxy-s10-branco-128gb-8gb-ram-tela-infinita-de-6-1-camera-traseira-tripla-dual-chip-powershare-leitor-digital-android-9-0-14817287.jpg",
      "id": 6
    },
    {
      "brand": "asdasdasd",
      "model": "asdasdasd",
      "price": "1231",
      "color": "BLACK",
      "startDate": "2019-12-04",
      "endDate": "2020-03-27",
      "photo": "https://i4.zst.com.br/images/smartphone-motorola-moto-g-g5-plus-xt1683-tv-digital-32gb-12-0-mp-2-chips-android-7-0-nougat-3g-4g-wi-fi-photo197883275-12-16-13.jpg",
      "id": 7
    }
  ]
}